<svg xmlns="http://www.w3.org/2000/svg" width="24" height="24" viewBox="0 0 24 24">
    <path fill="#333" fill-rule="evenodd" d="M8.104 17.462a1.019 1.019 0 0 1-.022-.015L4.766 15.21a1 1 0 0 1 1.118-1.658l2.817 1.9 9.127-9.451a1 1 0 0 1 1.44 1.39L9.541 17.46a1 1 0 0 1-1.438 0z"/>
</svg>
