<svg xmlns="http://www.w3.org/2000/svg" xmlns:xlink="http://www.w3.org/1999/xlink" width="24" height="24" viewBox="0 0 24 24">
    <defs>
        <path id="a" d="M12.707 11.293h6a1 1 0 0 1 0 2h-6v6a1 1 0 1 1-2 0v-6h-6a1 1 0 1 1 0-2h6v-6a1 1 0 1 1 2 0v6z"/>
    </defs>
    <use fill="#333" fill-rule="evenodd" transform="rotate(45 11.707 12.293)" xlink:href="#a"/>
</svg>
